// Jest Snapshot v1, https://goo.gl/fbAQLP

exports[`Test Suite: <RootAppContainer> +++ Verify the snapshot 1`] = `
<CidComponent(MockJss(WithTheme(Connect(LoggerForComponent(RootApp)))))
  appHeight={480}
  appWidth={640}
  classes={
    Object {
      "divider": Object {
        "backgroundColor": "rgba(255, 255, 255, 0.3)",
        "height": "1px",
        "margin": "-1px 0px 0px",
      },
      "outerDiv": Object {
        "height": "100vh",
        "overflow": "auto",
        "width": "100vw",
      },
      "rootApp": Object {
        "background": "rgba(0, 0, 0, 1)",
        "color": "#fff",
        "fontFamily": "Arial",
        "fontSize": "10pt",
        "height": [Function],
        "left": 0,
        "marginTop": 0,
        "overflow": "hidden",
        "paddingTop": 0,
        "right": 0,
        "width": [Function],
      },
    }
  }
  store={
    Object {
      "clearActions": [Function],
      "dispatch": [Function],
      "getActions": [Function],
      "getState": [Function],
      "replaceReducer": [Function],
      "subscribe": [Function],
    }
  }
  storeSubscription={
    Subscription {
      "listeners": Object {
        "notify": [Function],
      },
      "onStateChange": [Function],
      "parentSub": undefined,
      "store": Object {
        "clearActions": [Function],
        "dispatch": [Function],
        "getActions": [Function],
        "getState": [Function],
        "replaceReducer": [Function],
        "subscribe": [Function],
      },
      "unsubscribe": null,
    }
  }
  theme={
    Object {
      "breakpoints": Object {
        "between": [Function],
        "down": [Function],
        "keys": Array [
          "xs",
          "sm",
          "md",
          "lg",
          "xl",
        ],
        "only": [Function],
        "up": [Function],
        "values": Object {
          "lg": 1280,
          "md": 960,
          "sm": 600,
          "xl": 1920,
          "xs": 0,
        },
        "width": [Function],
      },
      "debug": Object {
        "debugBorderColor": "rgba(0, 0, 0, 1)",
        "showDebugBorder": true,
      },
      "direction": "ltr",
      "imageViewingPanel": Object {
        "canvasGrid": Object {
          "headerFontStyle": "italic",
          "headerPaddingLeft": 7,
          "headerPaddingTop": 3,
          "imageFit": 0.9,
        },
      },
      "mixins": Object {
        "gutters": [Function],
        "toolbar": Object {
          "@media (min-width:0px) and (orientation: landscape)": Object {
            "minHeight": 48,
          },
          "@media (min-width:600px)": Object {
            "minHeight": 64,
          },
          "minHeight": 56,
        },
      },
      "msgDialog": Object {
        "borderWidth": 4,
        "fontSize": "10pt",
        "height": 280,
        "icon": Object {
          "left": "1em",
          "top": "3em",
        },
        "paddingLeft": 75,
        "width": 440,
      },
      "overrides": Object {
        "MuiTooltip": Object {
          "tooltip": Object {
            "backgroundColor": "rgba(242, 242, 193, 1)",
            "color": "rgba(11, 51, 60, 1)",
            "fontSize": "8pt",
          },
        },
      },
      "palette": Object {
        "action": Object {
          "active": "#fff",
          "disabled": "rgba(255, 255, 255, 0.3)",
          "disabledBackground": "rgba(255, 255, 255, 0.12)",
          "hover": "rgba(255, 255, 255, 0.1)",
          "hoverOpacity": 0.1,
          "selected": "rgba(255, 255, 255, 0.2)",
        },
        "augmentColor": [Function],
        "background": Object {
          "default": "rgba(0, 0, 0, 1)",
          "paper": "rgba(66, 66, 66, 1)",
        },
        "common": Object {
          "black": "#000",
          "white": "#fff",
        },
        "contrastThreshold": 3,
        "divider": "rgba(255, 255, 255, 0.12)",
        "error": Object {
          "contrastText": "#fff",
          "dark": "#d32f2f",
          "light": "#e57373",
          "main": "#f44336",
        },
        "getContrastText": [Function],
        "grey": Object {
          "100": "#f5f5f5",
          "200": "#eeeeee",
          "300": "#e0e0e0",
          "400": "#bdbdbd",
          "50": "#fafafa",
          "500": "#9e9e9e",
          "600": "#757575",
          "700": "#616161",
          "800": "#424242",
          "900": "#212121",
          "A100": "#d5d5d5",
          "A200": "#aaaaaa",
          "A400": "#303030",
          "A700": "#616161",
        },
        "primary": Object {
          "contrastText": "#fff",
          "dark": "#303f9f",
          "light": "#7986cb",
          "main": "#3f51b5",
        },
        "secondary": Object {
          "contrastText": "#fff",
          "dark": "#c51162",
          "light": "#ff4081",
          "main": "#f50057",
        },
        "text": Object {
          "disabled": "rgba(255, 255, 255, 0.5)",
          "hint": "rgba(255, 255, 255, 0.5)",
          "icon": "rgba(255, 255, 255, 0.5)",
          "primary": "#fff",
          "secondary": "rgba(255, 255, 255, 0.7)",
        },
        "tonalOffset": 0.2,
        "type": "dark",
      },
      "pictorialIndexPanel": Object {
        "showHideButton": Object {
          "color": Object {
            "bg": "rgba(48, 48, 48, 1)",
          },
          "hideButton": Object {
            "height": 17,
            "width": 22,
          },
          "showButton": Object {
            "height": 181,
            "width": 15,
          },
        },
        "studyInfo": Object {
          "infoBase": Object {
            "fontSize": "8pt",
          },
          "wrapper": Object {
            "style": Object {
              "height": 100,
            },
          },
        },
        "thumbnailGrid": Object {
          "scrollBarWidth": 25,
          "spacing": 1,
          "subHeader": Object {
            "color": "rgba(255, 255, 255, 0.54)",
            "fontSize": "9pt",
            "height": 28,
            "lineHeight": "28px",
            "paddingLeft": 13,
          },
          "thumbnail": Object {
            "borderColor": "rgba(124, 124, 124, 1)",
            "borderColorSelected": "rgba(0, 209, 255, 1)",
            "borderStyle": "solid",
            "borderWidth": 2,
          },
        },
        "width": 220,
      },
      "props": Object {},
      "shadows": Array [
        "none",
        "0px 1px 3px 0px rgba(0, 0, 0, 0.2),0px 1px 1px 0px rgba(0, 0, 0, 0.14),0px 2px 1px -1px rgba(0, 0, 0, 0.12)",
        "0px 1px 5px 0px rgba(0, 0, 0, 0.2),0px 2px 2px 0px rgba(0, 0, 0, 0.14),0px 3px 1px -2px rgba(0, 0, 0, 0.12)",
        "0px 1px 8px 0px rgba(0, 0, 0, 0.2),0px 3px 4px 0px rgba(0, 0, 0, 0.14),0px 3px 3px -2px rgba(0, 0, 0, 0.12)",
        "0px 2px 4px -1px rgba(0, 0, 0, 0.2),0px 4px 5px 0px rgba(0, 0, 0, 0.14),0px 1px 10px 0px rgba(0, 0, 0, 0.12)",
        "0px 3px 5px -1px rgba(0, 0, 0, 0.2),0px 5px 8px 0px rgba(0, 0, 0, 0.14),0px 1px 14px 0px rgba(0, 0, 0, 0.12)",
        "0px 3px 5px -1px rgba(0, 0, 0, 0.2),0px 6px 10px 0px rgba(0, 0, 0, 0.14),0px 1px 18px 0px rgba(0, 0, 0, 0.12)",
        "0px 4px 5px -2px rgba(0, 0, 0, 0.2),0px 7px 10px 1px rgba(0, 0, 0, 0.14),0px 2px 16px 1px rgba(0, 0, 0, 0.12)",
        "0px 5px 5px -3px rgba(0, 0, 0, 0.2),0px 8px 10px 1px rgba(0, 0, 0, 0.14),0px 3px 14px 2px rgba(0, 0, 0, 0.12)",
        "0px 5px 6px -3px rgba(0, 0, 0, 0.2),0px 9px 12px 1px rgba(0, 0, 0, 0.14),0px 3px 16px 2px rgba(0, 0, 0, 0.12)",
        "0px 6px 6px -3px rgba(0, 0, 0, 0.2),0px 10px 14px 1px rgba(0, 0, 0, 0.14),0px 4px 18px 3px rgba(0, 0, 0, 0.12)",
        "0px 6px 7px -4px rgba(0, 0, 0, 0.2),0px 11px 15px 1px rgba(0, 0, 0, 0.14),0px 4px 20px 3px rgba(0, 0, 0, 0.12)",
        "0px 7px 8px -4px rgba(0, 0, 0, 0.2),0px 12px 17px 2px rgba(0, 0, 0, 0.14),0px 5px 22px 4px rgba(0, 0, 0, 0.12)",
        "0px 7px 8px -4px rgba(0, 0, 0, 0.2),0px 13px 19px 2px rgba(0, 0, 0, 0.14),0px 5px 24px 4px rgba(0, 0, 0, 0.12)",
        "0px 7px 9px -4px rgba(0, 0, 0, 0.2),0px 14px 21px 2px rgba(0, 0, 0, 0.14),0px 5px 26px 4px rgba(0, 0, 0, 0.12)",
        "0px 8px 9px -5px rgba(0, 0, 0, 0.2),0px 15px 22px 2px rgba(0, 0, 0, 0.14),0px 6px 28px 5px rgba(0, 0, 0, 0.12)",
        "0px 8px 10px -5px rgba(0, 0, 0, 0.2),0px 16px 24px 2px rgba(0, 0, 0, 0.14),0px 6px 30px 5px rgba(0, 0, 0, 0.12)",
        "0px 8px 11px -5px rgba(0, 0, 0, 0.2),0px 17px 26px 2px rgba(0, 0, 0, 0.14),0px 6px 32px 5px rgba(0, 0, 0, 0.12)",
        "0px 9px 11px -5px rgba(0, 0, 0, 0.2),0px 18px 28px 2px rgba(0, 0, 0, 0.14),0px 7px 34px 6px rgba(0, 0, 0, 0.12)",
        "0px 9px 12px -6px rgba(0, 0, 0, 0.2),0px 19px 29px 2px rgba(0, 0, 0, 0.14),0px 7px 36px 6px rgba(0, 0, 0, 0.12)",
        "0px 10px 13px -6px rgba(0, 0, 0, 0.2),0px 20px 31px 3px rgba(0, 0, 0, 0.14),0px 8px 38px 7px rgba(0, 0, 0, 0.12)",
        "0px 10px 13px -6px rgba(0, 0, 0, 0.2),0px 21px 33px 3px rgba(0, 0, 0, 0.14),0px 8px 40px 7px rgba(0, 0, 0, 0.12)",
        "0px 10px 14px -6px rgba(0, 0, 0, 0.2),0px 22px 35px 3px rgba(0, 0, 0, 0.14),0px 8px 42px 7px rgba(0, 0, 0, 0.12)",
        "0px 11px 14px -7px rgba(0, 0, 0, 0.2),0px 23px 36px 3px rgba(0, 0, 0, 0.14),0px 9px 44px 8px rgba(0, 0, 0, 0.12)",
        "0px 11px 15px -7px rgba(0, 0, 0, 0.2),0px 24px 38px 3px rgba(0, 0, 0, 0.14),0px 9px 46px 8px rgba(0, 0, 0, 0.12)",
      ],
      "shape": Object {
        "borderRadius": 4,
      },
      "spacing": Object {
        "unit": 8,
      },
      "toolBarPanel": Object {
        "height": 40,
        "propsBox": Object {
          "width": 300,
        },
        "toolBarBtn": Object {
          "color": Object {
            "bg": "rgba(0, 0, 0, 1)",
            "hover": "#bbdefb",
            "normal": "rgba(255, 255, 255, 1)",
            "selected": "#2196f3",
          },
          "height": 38,
          "printButtonTools": Object {
            "fontSize": "9pt",
          },
          "width": 39,
        },
        "width": "100%",
      },
      "transitions": Object {
        "create": [Function],
        "duration": Object {
          "complex": 375,
          "enteringScreen": 225,
          "leavingScreen": 195,
          "short": 250,
          "shorter": 200,
          "shortest": 150,
          "standard": 300,
        },
        "easing": Object {
          "easeIn": "cubic-bezier(0.4, 0, 1, 1)",
          "easeInOut": "cubic-bezier(0.4, 0, 0.2, 1)",
          "easeOut": "cubic-bezier(0.0, 0, 0.2, 1)",
          "sharp": "cubic-bezier(0.4, 0, 0.6, 1)",
        },
        "getAutoHeightDuration": [Function],
      },
      "typography": Object {
        "body1": Object {
          "color": "#fff",
          "fontFamily": "Arial",
          "fontSize": "NaNrem",
          "fontWeight": 400,
          "lineHeight": "1.46429em",
        },
        "body2": Object {
          "color": "#fff",
          "fontFamily": "Arial",
          "fontSize": "NaNrem",
          "fontWeight": 500,
          "lineHeight": "1.71429em",
        },
        "button": Object {
          "color": "#fff",
          "fontFamily": "Arial",
          "fontSize": "NaNrem",
          "fontWeight": 500,
          "textTransform": "uppercase",
        },
        "caption": Object {
          "color": "rgba(255, 255, 255, 0.7)",
          "fontFamily": "Arial",
          "fontSize": "NaNrem",
          "fontWeight": 400,
          "lineHeight": "1.375em",
        },
        "display1": Object {
          "color": "rgba(255, 255, 255, 0.7)",
          "fontFamily": "Arial",
          "fontSize": "NaNrem",
          "fontWeight": 400,
          "lineHeight": "1.20588em",
        },
        "display2": Object {
          "color": "rgba(255, 255, 255, 0.7)",
          "fontFamily": "Arial",
          "fontSize": "NaNrem",
          "fontWeight": 400,
          "lineHeight": "1.13333em",
          "marginLeft": "-.02em",
        },
        "display3": Object {
          "color": "rgba(255, 255, 255, 0.7)",
          "fontFamily": "Arial",
          "fontSize": "NaNrem",
          "fontWeight": 400,
          "letterSpacing": "-.02em",
          "lineHeight": "1.30357em",
          "marginLeft": "-.02em",
        },
        "display4": Object {
          "color": "rgba(255, 255, 255, 0.7)",
          "fontFamily": "Arial",
          "fontSize": "NaNrem",
          "fontWeight": 300,
          "letterSpacing": "-.04em",
          "lineHeight": "1.14286em",
          "marginLeft": "-.04em",
        },
        "fontFamily": "Arial",
        "fontSize": "10pt",
        "fontWeightLight": 300,
        "fontWeightMedium": 500,
        "fontWeightRegular": 400,
        "headline": Object {
          "color": "#fff",
          "fontFamily": "Arial",
          "fontSize": "NaNrem",
          "fontWeight": 400,
          "lineHeight": "1.35417em",
        },
        "pxToRem": [Function],
        "round": [Function],
        "subheading": Object {
          "color": "#fff",
          "fontFamily": "Arial",
          "fontSize": "NaNrem",
          "fontWeight": 400,
          "lineHeight": "1.5em",
        },
        "title": Object {
          "color": "#fff",
          "fontFamily": "Arial",
          "fontSize": "NaNrem",
          "fontWeight": 500,
          "lineHeight": "1.16667em",
        },
      },
      "zIndex": Object {
        "appBar": 1100,
        "drawer": 1200,
        "mobileStepper": 1000,
        "modal": 1300,
        "snackbar": 1400,
        "tooltip": 1500,
      },
    }
  }
/>
`;
