{
	"viewerControl": {
		"idleTimeout": "20",
		"caseProfileTimeout": "60",
		"EPRTimeoutMethodName": "acknowledgeEPRTimeout",
		"applicationId": "IV",
		"applicationVersion": "6.0.0.4"
	},
	"export": {
		"imageExportFileName": "Images.zip",
		"imageExportDisclaimer": "<b>Exported image(s) may contain sensitive patient information.</b><br><ul><li>Exported images should only be used for justified clinical purposes.</li><li>Please remove patient information from the image(s) and store in encrypted media before any use</li><li>Please use security password to encrypt and decrypt the exported image(s). \"7-Zip\" should be used to open the encrypted file <a target=\"_blank\" rel=\"noopener noreferrer\" href=\"http://infosec.home/SecurityTopics/DataEncryption/7ZipUserGuide.aspx?Menu=CommonEncryptionSoftware&Lang=en-US\">7-Zip User Guide</a></li></ul>"
	},
	"imageHeader": {
		"fontType": "Arial",
		"fontSize": 11,
		"fontColor": "white",
		"bgColor": "rgba(0, 0, 0, 1)",
		"visibility": true,
		"rtcExamType": "ES",
		"rtcImageCreateDateTime": false
    },
	"webServiceIcw": {
		"cidWsContextPath": "http://cid-corp-d1:11360/cid-image-common_6_0_0_4",
		"suid1": "di6nu9/XvFXqdO330PbU4w==",
		"suid2": "N3FoxBETpxV/5afL9IcAaQ=="
	},
	"pictorialIndex": {
		"numOfColumn": 2,
		"isShowSeriesHeading": true,
		"serieName": "Series 1"
	},
	"colorAdjustment": {
		"maxNumOfImage": 1
	},
	"webService": {
		"timeout": 15000
	}
}
