{
	"errors": {
		"3001": {
			"title": "CID Service Error",
			"content": "EJB Exception!\nPlease contact call center for help if the service is not resumed."
		},
		"3002": {
			"title": "CID Service Error",
			"content": "Failed to invoke the CID WriteLog service.\nPlease retry. Please contact call center for help if the service is not resumed."
		},
		"3003": {
			"title": "CID Service Error",
			"content": "Failed to retrieve application configuration.\nPlease retry. Please contact call center for help if the sevice is not resumed."
		},
		"3004": {
			"title": "CID Service Error",
			"content": "Failed to invoke CID-IAS REST-ful service.\nPlease retry. Please contact call center for help if the service is not resumed."
		},
		"3005": {
			"title": "CID Service Error",
			"content": "Failed to invoke CID-ICW File REST-ful service.\nPlease retry. Please contact call center for help if the service is not resumed."
		},
		"3201": {
			"title": "CID Service Error",
			"content": "Failed to retrieve configuration files.\nPlease retry. Please contact call center for help if the service is not resumed."
		},
		"3204": {
			"title": "CID Service Error",
			"content": "Failed to invoke JSON File by REST-ful service.\nPlease retry. Please contact call center for help if the service is not resumed."
		},
		"4001": {
			"title": "CID Service Error",
			"content": "Failed to invoke IAS Authentication service.\nPlease retry. Please contact call center for help if the service is not resumed."
		},
		"4002": {
			"title": "CID Service Error",
			"content": "Failed to invoke ICW Authentication service.\nPlease retry. Please contact call center for help if the service is not resumed."
		},
		"4201": {
			"title": "Error: Access Authentication",
			"content": "You do not have access right to activate the CID ImageViewer."
		},
		"4202": {
			"title": "Session Timeout",
			"content": "The imageViewer session is terminated."
		},
		"4203": {
			"title": "Error: Application Version",
			"content": "An unmatch version of CID ImageViewer is installed or current version is disabled."
		},
		"4204": {
			"title": "Error: Missing input parameter",
			"content": "Not enough information to process."
		},
		"5000": {
			"title": "System Error",
			"content": "Unexpected error occurred.\nPlease contact call center for help."
		},
		"5201": {
			"title": "System Warning",
			"content": "Window is resized, please stop the slideshow and replay."
		},
		"5202": {
			"title": "Error: Invalid Case Profile",
			"content": "Unable to read case profile."
		},
		"5203": {
			"title": "System Warning",
			"content": "Window level / contrast adjustment is not applicable to multiple images.\nPlease select single image only."
		}
	}
}